\relax 
\providecommand\hyper@newdestlabel[2]{}
\providecommand\HyperFirstAtBeginDocument{\AtBeginDocument}
\HyperFirstAtBeginDocument{\ifx\hyper@anchor\@undefined
\global\let\oldcontentsline\contentsline
\gdef\contentsline#1#2#3#4{\oldcontentsline{#1}{#2}{#3}}
\global\let\oldnewlabel\newlabel
\gdef\newlabel#1#2{\newlabelxx{#1}#2}
\gdef\newlabelxx#1#2#3#4#5#6{\oldnewlabel{#1}{{#2}{#3}}}
\AtEndDocument{\ifx\hyper@anchor\@undefined
\let\contentsline\oldcontentsline
\let\newlabel\oldnewlabel
\fi}
\fi}
\global\let\hyper@last\relax 
\gdef\HyperFirstAtBeginDocument#1{#1}
\providecommand\HyField@AuxAddToFields[1]{}
\providecommand\HyField@AuxAddToCoFields[2]{}
\providecommand \oddpage@label [2]{}
\babel@aux{english}{}
\@writefile{toc}{\contentsline {part}{I\hspace  {1em}Cybersecurity and normative initiatives}{3}{part.1}}
\@writefile{toc}{\contentsline {section}{\numberline {1}Risk management}{5}{section.0.1}}
\@writefile{toc}{\contentsline {section}{\numberline {2}Information security}{5}{section.0.2}}
\@writefile{toc}{\contentsline {section}{\numberline {3}Critical infrastructure protection}{5}{section.0.3}}
\@writefile{toc}{\contentsline {section}{\numberline {4}Wordwide initiatives}{5}{section.0.4}}
\@writefile{toc}{\contentsline {part}{II\hspace  {1em}Forensics}{7}{part.2}}
\@writefile{toc}{\contentsline {section}{\numberline {5}Preliminaries}{9}{section.0.5}}
\@writefile{toc}{\contentsline {subsection}{\numberline {5.1}Digital Evidence }{11}{subsection.0.5.1}}
\@writefile{toc}{\contentsline {section}{\numberline {6}Forensics methodology}{12}{section.0.6}}
\@writefile{toc}{\contentsline {subsection}{\numberline {6.1}NYCE Mexican norm/rule NMX-I-289-NYCE-2016}{12}{subsection.0.6.1}}
\@writefile{lof}{\contentsline {figure}{\numberline {1}{\ignorespaces Stages of computer forensics, NMX-I-289-NYCE-2016.}}{12}{figure.0.1}}
\@writefile{toc}{\contentsline {subsubsection}{Identification stage}{12}{subsubsection*.3}}
\@writefile{toc}{\contentsline {subsubsection}{Acquisition of tests or digital evidence}{13}{subsubsection*.4}}
\@writefile{toc}{\contentsline {subsubsection}{Inspection and analysis of digital evidence}{14}{subsubsection*.5}}
\@writefile{toc}{\contentsline {subsubsection}{Presentation of results and elaboration of the report}{15}{subsubsection*.6}}
\@writefile{toc}{\contentsline {subsection}{\numberline {6.2}RFC 3227}{15}{subsection.0.6.2}}
\@writefile{toc}{\contentsline {subsubsection}{Volatility Order}{16}{subsubsection*.7}}
\@writefile{toc}{\contentsline {subsubsection}{Acquisition process}{17}{subsubsection*.8}}
\@writefile{toc}{\contentsline {subsection}{\numberline {6.3}ISO/IEC 27037:2012}{17}{subsection.0.6.3}}
\@writefile{lof}{\contentsline {figure}{\numberline {2}{\ignorespaces Processes for handling digital evidence.}}{18}{figure.0.2}}
\@writefile{toc}{\contentsline {subsection}{\numberline {6.4}Guide to Integrating Forensic Techniques into Incident Response - (NIST)}{20}{subsection.0.6.4}}
\@writefile{lof}{\contentsline {figure}{\numberline {3}{\ignorespaces Processes for handling digital evidence.}}{21}{figure.0.3}}
\@writefile{toc}{\contentsline {section}{\numberline {7}Chain of Custody}{21}{section.0.7}}
\@writefile{lof}{\contentsline {figure}{\numberline {4}{\ignorespaces Chain of custody stages.}}{22}{figure.0.4}}
\@writefile{toc}{\contentsline {subsection}{\numberline {7.1}Processing}{22}{subsection.0.7.1}}
\@writefile{toc}{\contentsline {subsection}{\numberline {7.2}Transfer}{24}{subsection.0.7.2}}
\@writefile{toc}{\contentsline {subsection}{\numberline {7.3}Analysis}{24}{subsection.0.7.3}}
\@writefile{toc}{\contentsline {subsection}{\numberline {7.4}Storage}{25}{subsection.0.7.4}}
\@writefile{toc}{\contentsline {section}{\numberline {8}Study case}{25}{section.0.8}}
\@writefile{lof}{\contentsline {figure}{\numberline {5}{\ignorespaces Operating System.}}{26}{figure.0.5}}
\@writefile{lof}{\contentsline {figure}{\numberline {6}{\ignorespaces Operating System.}}{26}{figure.0.6}}
\@writefile{lof}{\contentsline {figure}{\numberline {7}{\ignorespaces Registered users.}}{27}{figure.0.7}}
\@writefile{lof}{\contentsline {subfigure}{\numberline{(a)}{\ignorespaces {}}}{27}{figure.0.7}}
\@writefile{lof}{\contentsline {subfigure}{\numberline{(b)}{\ignorespaces {}}}{27}{figure.0.7}}
\@writefile{lof}{\contentsline {figure}{\numberline {8}{\ignorespaces The last user who logged in.}}{28}{figure.0.8}}
\@writefile{lof}{\contentsline {figure}{\numberline {9}{\ignorespaces Juan Alberto\IeC {\textquoteright }s email.}}{28}{figure.0.9}}
\@writefile{lof}{\contentsline {figure}{\numberline {10}{\ignorespaces Emanuel Hern\IeC {\'a}ndez\IeC {\textquoteright }s email.}}{29}{figure.0.10}}
\@writefile{lof}{\contentsline {figure}{\numberline {11}{\ignorespaces Initial communication.}}{29}{figure.0.11}}
\@writefile{lof}{\contentsline {figure}{\numberline {12}{\ignorespaces Information about the phone used.}}{30}{figure.0.12}}
\@writefile{lof}{\contentsline {figure}{\numberline {13}{\ignorespaces Information about the phone used.}}{30}{figure.0.13}}
\@writefile{lof}{\contentsline {figure}{\numberline {14}{\ignorespaces Possible location.}}{31}{figure.0.14}}
\@writefile{lof}{\contentsline {subfigure}{\numberline{(a)}{\ignorespaces {}}}{31}{figure.0.14}}
\@writefile{lof}{\contentsline {subfigure}{\numberline{(b)}{\ignorespaces {}}}{31}{figure.0.14}}
\@writefile{lof}{\contentsline {figure}{\numberline {15}{\ignorespaces Browsing history.}}{31}{figure.0.15}}
\@writefile{toc}{\contentsline {part}{III\hspace  {1em}Internet of things and embedded world}{33}{part.3}}
\@writefile{toc}{\contentsline {section}{\numberline {9}Preliminaries}{35}{section.0.9}}
\@writefile{toc}{\contentsline {section}{\numberline {10}Security in the IoT}{35}{section.0.10}}
\@writefile{toc}{\contentsline {section}{\numberline {11}Cryptography in embedded devices}{35}{section.0.11}}
\@writefile{toc}{\contentsline {section}{\numberline {12}Study cases}{35}{section.0.12}}
\@writefile{toc}{\contentsline {part}{IV\hspace  {1em}Data hiding}{37}{part.4}}
\@writefile{toc}{\contentsline {section}{\numberline {13}Preliminaries}{39}{section.0.13}}
\@writefile{toc}{\contentsline {section}{\numberline {14}Reversible data hiding in encrypted domain (RDH-ED)}{39}{section.0.14}}
\@writefile{lot}{\contentsline {table}{\numberline {1}{\ignorespaces Common terms used in RDH-ED research field.}}{40}{table.0.1}}
\@writefile{lof}{\contentsline {figure}{\numberline {16}{\ignorespaces General diagram of RDH-ED methodology.}}{41}{figure.0.16}}
\@writefile{toc}{\contentsline {section}{\numberline {15}Classification of RDH-ED schemes}{42}{section.0.15}}
\@writefile{toc}{\contentsline {subsection}{\numberline {15.1}Vacating Room Before Encryption (VRBE) }{42}{subsection.0.15.1}}
\@writefile{toc}{\contentsline {subsection}{\numberline {15.2}Vacating Room After Encryption (VRAE) }{42}{subsection.0.15.2}}
\@writefile{lof}{\contentsline {figure}{\numberline {17}{\ignorespaces General diagram of VRBE framework.}}{43}{figure.0.17}}
\@writefile{lof}{\contentsline {figure}{\numberline {18}{\ignorespaces General diagram of VRAE framework.}}{44}{figure.0.18}}
\@writefile{lof}{\contentsline {figure}{\numberline {19}{\ignorespaces Diagram of data extraction and image recovery in plaintext domain.}}{45}{figure.0.19}}
\@writefile{lof}{\contentsline {figure}{\numberline {20}{\ignorespaces Diagram of data extraction and image recovery in encrypted domain.}}{45}{figure.0.20}}
\@writefile{lof}{\contentsline {figure}{\numberline {21}{\ignorespaces Diagram of data extraction and image recovery in encrypted/plaintext domains.}}{46}{figure.0.21}}
\@writefile{toc}{\contentsline {section}{\numberline {16}Study cases and application scenarios}{46}{section.0.16}}
\@writefile{toc}{\contentsline {subsection}{\numberline {16.1}Protecting the sharing and distribution of color images hosted in cloud storage services}{47}{subsection.0.16.1}}
\@writefile{lof}{\contentsline {figure}{\numberline {22}{\ignorespaces General diagram of the RDH-ED to protect the sharing and distribution of color images hosted in cloud storage services.}}{47}{figure.0.22}}
\@writefile{lof}{\contentsline {figure}{\numberline {23}{\ignorespaces Image preprocessing.}}{49}{figure.0.23}}
\@writefile{lof}{\contentsline {figure}{\numberline {24}{\ignorespaces (a) Luminance information pre-processed. (b) Result of apply Rijndael algorithm to (a) in CTR mode. (c) Result of apply pixel permutation to (b).}}{50}{figure.0.24}}
\@writefile{lof}{\contentsline {subfigure}{\numberline{(a)}{\ignorespaces {}}}{50}{figure.0.24}}
\@writefile{lof}{\contentsline {subfigure}{\numberline{(b)}{\ignorespaces {}}}{50}{figure.0.24}}
\@writefile{lof}{\contentsline {subfigure}{\numberline{(c)}{\ignorespaces {}}}{50}{figure.0.24}}
\@writefile{lot}{\contentsline {table}{\numberline {2}{\ignorespaces Secret message SM description.}}{50}{table.0.2}}
\@writefile{toc}{\contentsline {subsection}{\numberline {16.2}Experimental results}{52}{subsection.0.16.2}}
\@writefile{lof}{\contentsline {figure}{\numberline {25}{\ignorespaces Average PSNR (dB) obtained for the bit-planes 0 to 7 using AES in OFB mode.}}{53}{figure.0.25}}
\@writefile{lof}{\contentsline {figure}{\numberline {26}{\ignorespaces Data hiding capacity with several embedding rates.}}{54}{figure.0.26}}
\@writefile{lof}{\contentsline {figure}{\numberline {27}{\ignorespaces USC-SIPI image dataset. (a) Lena, (b) Baboon, (c) Man, (d) Boats and (e) Peppers.}}{54}{figure.0.27}}
\@writefile{lof}{\contentsline {subfigure}{\numberline{(a)}{\ignorespaces {}}}{54}{figure.0.27}}
\@writefile{lof}{\contentsline {subfigure}{\numberline{(b)}{\ignorespaces {}}}{54}{figure.0.27}}
\@writefile{lof}{\contentsline {subfigure}{\numberline{(c)}{\ignorespaces {}}}{54}{figure.0.27}}
\@writefile{lof}{\contentsline {subfigure}{\numberline{(d)}{\ignorespaces {}}}{54}{figure.0.27}}
\@writefile{lof}{\contentsline {subfigure}{\numberline{(e)}{\ignorespaces {}}}{54}{figure.0.27}}
\@writefile{lot}{\contentsline {table}{\numberline {3}{\ignorespaces PSNR between original and encrypted versions.}}{55}{table.0.3}}
\@writefile{lof}{\contentsline {figure}{\numberline {28}{\ignorespaces Encrypted versions of Lena image. (a) Original, (b) Method in [9], (c) Method in [29] and (d) Proposed method.}}{56}{figure.0.28}}
\@writefile{lof}{\contentsline {subfigure}{\numberline{(a)}{\ignorespaces {}}}{56}{figure.0.28}}
\@writefile{lof}{\contentsline {subfigure}{\numberline{(b)}{\ignorespaces {}}}{56}{figure.0.28}}
\@writefile{lof}{\contentsline {subfigure}{\numberline{(c)}{\ignorespaces {}}}{56}{figure.0.28}}
\@writefile{lof}{\contentsline {subfigure}{\numberline{(d)}{\ignorespaces {}}}{56}{figure.0.28}}
\@writefile{lof}{\contentsline {figure}{\numberline {29}{\ignorespaces Average visual quality results in terms of PSNR for several chrominance resizing.}}{57}{figure.0.29}}
\@writefile{lof}{\contentsline {figure}{\numberline {30}{\ignorespaces Average visual quality results in terms of SSIM for several chrominance resizing.}}{58}{figure.0.30}}
\@writefile{lof}{\contentsline {figure}{\numberline {31}{\ignorespaces Average visual quality results in terms of NCD for several chrominance resizing.}}{58}{figure.0.31}}
\@writefile{lof}{\contentsline {figure}{\numberline {32}{\ignorespaces (a) Original image. Recovered color image with chrominances resized to (a) 128x128, (b) 64x64, (c) 32x32, (d) 16x16 and (e) 8x8.}}{59}{figure.0.32}}
\@writefile{lof}{\contentsline {subfigure}{\numberline{(a)}{\ignorespaces {}}}{59}{figure.0.32}}
\@writefile{lof}{\contentsline {subfigure}{\numberline{(b)}{\ignorespaces {}}}{59}{figure.0.32}}
\@writefile{lof}{\contentsline {subfigure}{\numberline{(c)}{\ignorespaces {}}}{59}{figure.0.32}}
\@writefile{lof}{\contentsline {subfigure}{\numberline{(d)}{\ignorespaces {}}}{59}{figure.0.32}}
\@writefile{lof}{\contentsline {subfigure}{\numberline{(e)}{\ignorespaces {}}}{59}{figure.0.32}}
\@writefile{lof}{\contentsline {subfigure}{\numberline{(f)}{\ignorespaces {}}}{59}{figure.0.32}}
\@writefile{toc}{\contentsline {section}{\numberline {17}Future work}{60}{section.0.17}}
\@writefile{lof}{\contentsline {figure}{\numberline {33}{\ignorespaces (a) Original image, (b) Re-arranged image, (c) Encrypted version of image (b) using AES CTR mode, (d) Permuted version of image (c), (e) Approximate version in grayscale resolution with data hidden in its content, (f) Restored color image with ROI luminance error-free.}}{61}{figure.0.33}}
\@writefile{lof}{\contentsline {subfigure}{\numberline{(a)}{\ignorespaces {}}}{61}{figure.0.33}}
\@writefile{lof}{\contentsline {subfigure}{\numberline{(b)}{\ignorespaces {}}}{61}{figure.0.33}}
\@writefile{lof}{\contentsline {subfigure}{\numberline{(c)}{\ignorespaces {}}}{61}{figure.0.33}}
\@writefile{lof}{\contentsline {subfigure}{\numberline{(d)}{\ignorespaces {}}}{61}{figure.0.33}}
\@writefile{lof}{\contentsline {subfigure}{\numberline{(e)}{\ignorespaces {}}}{61}{figure.0.33}}
\@writefile{lof}{\contentsline {subfigure}{\numberline{(f)}{\ignorespaces {}}}{61}{figure.0.33}}
\@writefile{lof}{\contentsline {figure}{\numberline {34}{\ignorespaces (a) Original image, (b) Re-arranged image, (c) Encrypted version of image (b) using AES CTR mode, (d) Permuted version of image (c), (e) Approximate version in grayscale resolution with data hidden in its content, (f) Restored color image with ROI luminance error-free.}}{62}{figure.0.34}}
\@writefile{lof}{\contentsline {subfigure}{\numberline{(a)}{\ignorespaces {}}}{62}{figure.0.34}}
\@writefile{lof}{\contentsline {subfigure}{\numberline{(b)}{\ignorespaces {}}}{62}{figure.0.34}}
\@writefile{lof}{\contentsline {subfigure}{\numberline{(c)}{\ignorespaces {}}}{62}{figure.0.34}}
\@writefile{lof}{\contentsline {subfigure}{\numberline{(d)}{\ignorespaces {}}}{62}{figure.0.34}}
\@writefile{lof}{\contentsline {subfigure}{\numberline{(e)}{\ignorespaces {}}}{62}{figure.0.34}}
\@writefile{lof}{\contentsline {subfigure}{\numberline{(f)}{\ignorespaces {}}}{62}{figure.0.34}}
\@writefile{lof}{\contentsline {figure}{\numberline {35}{\ignorespaces (a) Original image, (b) Re-arranged image, (c) Encrypted version of image (b) using AES CTR mode, (d) Permuted version of image (c), (e) Approximate version in grayscale resolution with data hidden in its content, (f) Restored color image with ROI luminance error-free.}}{63}{figure.0.35}}
\@writefile{lof}{\contentsline {subfigure}{\numberline{(a)}{\ignorespaces {}}}{63}{figure.0.35}}
\@writefile{lof}{\contentsline {subfigure}{\numberline{(b)}{\ignorespaces {}}}{63}{figure.0.35}}
\@writefile{lof}{\contentsline {subfigure}{\numberline{(c)}{\ignorespaces {}}}{63}{figure.0.35}}
\@writefile{lof}{\contentsline {subfigure}{\numberline{(d)}{\ignorespaces {}}}{63}{figure.0.35}}
\@writefile{lof}{\contentsline {subfigure}{\numberline{(e)}{\ignorespaces {}}}{63}{figure.0.35}}
\@writefile{lof}{\contentsline {subfigure}{\numberline{(f)}{\ignorespaces {}}}{63}{figure.0.35}}
\@writefile{lof}{\contentsline {figure}{\numberline {36}{\ignorespaces (a) Original image, (b) Re-arranged image, (c) Encrypted version of image (b) using AES CTR mode, (d) Permuted version of image (c), (e) Approximate version in grayscale resolution with data hidden in its content, (f) Restored color image with ROI luminance error-free.}}{64}{figure.0.36}}
\@writefile{lof}{\contentsline {subfigure}{\numberline{(a)}{\ignorespaces {}}}{64}{figure.0.36}}
\@writefile{lof}{\contentsline {subfigure}{\numberline{(b)}{\ignorespaces {}}}{64}{figure.0.36}}
\@writefile{lof}{\contentsline {subfigure}{\numberline{(c)}{\ignorespaces {}}}{64}{figure.0.36}}
\@writefile{lof}{\contentsline {subfigure}{\numberline{(d)}{\ignorespaces {}}}{64}{figure.0.36}}
\@writefile{lof}{\contentsline {subfigure}{\numberline{(e)}{\ignorespaces {}}}{64}{figure.0.36}}
\@writefile{lof}{\contentsline {subfigure}{\numberline{(f)}{\ignorespaces {}}}{64}{figure.0.36}}
\@writefile{lof}{\contentsline {figure}{\numberline {37}{\ignorespaces (a) Original image, (b) Re-arranged image, (c) Encrypted version of image (b) using AES CTR mode, (d) Permuted version of image (c), (e) Approximate version in grayscale resolution with data hidden in its content, (f) Restored color image with ROI luminance error-free.}}{65}{figure.0.37}}
\@writefile{lof}{\contentsline {subfigure}{\numberline{(a)}{\ignorespaces {}}}{65}{figure.0.37}}
\@writefile{lof}{\contentsline {subfigure}{\numberline{(b)}{\ignorespaces {}}}{65}{figure.0.37}}
\@writefile{lof}{\contentsline {subfigure}{\numberline{(c)}{\ignorespaces {}}}{65}{figure.0.37}}
\@writefile{lof}{\contentsline {subfigure}{\numberline{(d)}{\ignorespaces {}}}{65}{figure.0.37}}
\@writefile{lof}{\contentsline {subfigure}{\numberline{(e)}{\ignorespaces {}}}{65}{figure.0.37}}
\@writefile{lof}{\contentsline {subfigure}{\numberline{(f)}{\ignorespaces {}}}{65}{figure.0.37}}
\@writefile{lof}{\contentsline {figure}{\numberline {38}{\ignorespaces (a) Original image, (b) Re-arranged image, (c) Encrypted version of image (b) using AES CTR mode, (d) Permuted version of image (c), (e) Approximate version in grayscale resolution with data hidden in its content, (f) Restored color image with ROI luminance error-free.}}{66}{figure.0.38}}
\@writefile{lof}{\contentsline {subfigure}{\numberline{(a)}{\ignorespaces {}}}{66}{figure.0.38}}
\@writefile{lof}{\contentsline {subfigure}{\numberline{(b)}{\ignorespaces {}}}{66}{figure.0.38}}
\@writefile{lof}{\contentsline {subfigure}{\numberline{(c)}{\ignorespaces {}}}{66}{figure.0.38}}
\@writefile{lof}{\contentsline {subfigure}{\numberline{(d)}{\ignorespaces {}}}{66}{figure.0.38}}
\@writefile{lof}{\contentsline {subfigure}{\numberline{(e)}{\ignorespaces {}}}{66}{figure.0.38}}
\@writefile{lof}{\contentsline {subfigure}{\numberline{(f)}{\ignorespaces {}}}{66}{figure.0.38}}
\@writefile{lof}{\contentsline {figure}{\numberline {39}{\ignorespaces (a) Original image, (b) Re-arranged image, (c) Encrypted version of image (b) using AES CTR mode, (d) Permuted version of image (c), (e) Approximate version in grayscale resolution with data hidden in its content, (f) Restored color image with ROI luminance error-free.}}{67}{figure.0.39}}
\@writefile{lof}{\contentsline {subfigure}{\numberline{(a)}{\ignorespaces {}}}{67}{figure.0.39}}
\@writefile{lof}{\contentsline {subfigure}{\numberline{(b)}{\ignorespaces {}}}{67}{figure.0.39}}
\@writefile{lof}{\contentsline {subfigure}{\numberline{(c)}{\ignorespaces {}}}{67}{figure.0.39}}
\@writefile{lof}{\contentsline {subfigure}{\numberline{(d)}{\ignorespaces {}}}{67}{figure.0.39}}
\@writefile{lof}{\contentsline {subfigure}{\numberline{(e)}{\ignorespaces {}}}{67}{figure.0.39}}
\@writefile{lof}{\contentsline {subfigure}{\numberline{(f)}{\ignorespaces {}}}{67}{figure.0.39}}
\@writefile{lof}{\contentsline {figure}{\numberline {40}{\ignorespaces (a) Original image, (b) Approximate version in grayscale resolution with data hidden in its content, (c) Colorized version of (b) using [33] in manual-mode, (d) Colorized version of (b) using [33] in auto-mode, (e) Recovered color image using the proposed RDH-ED.}}{68}{figure.0.40}}
\@writefile{lof}{\contentsline {subfigure}{\numberline{(a)}{\ignorespaces {}}}{68}{figure.0.40}}
\@writefile{lof}{\contentsline {subfigure}{\numberline{(b)}{\ignorespaces {}}}{68}{figure.0.40}}
\@writefile{lof}{\contentsline {subfigure}{\numberline{(c)}{\ignorespaces {}}}{68}{figure.0.40}}
\@writefile{lof}{\contentsline {subfigure}{\numberline{(d)}{\ignorespaces {}}}{68}{figure.0.40}}
\@writefile{lof}{\contentsline {subfigure}{\numberline{(e)}{\ignorespaces {}}}{68}{figure.0.40}}
\@writefile{lof}{\contentsline {figure}{\numberline {41}{\ignorespaces (a) Original image, (b) Approximate version in grayscale resolution with data hidden in its content, (c) Colorized version of (b) using [33] in manual-mode, (d) Colorized version of (b) using [33] in auto-mode, (e) Recovered color image using the proposed RDH-ED.}}{69}{figure.0.41}}
\@writefile{lof}{\contentsline {subfigure}{\numberline{(a)}{\ignorespaces {}}}{69}{figure.0.41}}
\@writefile{lof}{\contentsline {subfigure}{\numberline{(b)}{\ignorespaces {}}}{69}{figure.0.41}}
\@writefile{lof}{\contentsline {subfigure}{\numberline{(c)}{\ignorespaces {}}}{69}{figure.0.41}}
\@writefile{lof}{\contentsline {subfigure}{\numberline{(d)}{\ignorespaces {}}}{69}{figure.0.41}}
\@writefile{lof}{\contentsline {subfigure}{\numberline{(e)}{\ignorespaces {}}}{69}{figure.0.41}}
\@writefile{toc}{\contentsline {part}{V\hspace  {1em}Quantum-safe cryptography}{71}{part.5}}
\citation{Menezes}
\citation{NISTIR8105}
\citation{Shor}
\citation{Berstein2009}
\citation{NISTPQC}
\@writefile{toc}{\contentsline {section}{\numberline {18}Preliminaries}{73}{section.0.18}}
\@writefile{toc}{\contentsline {section}{\numberline {19}NIST Standarization process}{73}{section.0.19}}
\citation{nis}
\citation{classic mce}
\citation{Kyber}
\citation{joppe}
\citation{hqc}
\citation{kem4}
\citation{leda}
\citation{nh}
\citation{ntru}
\citation{ntruprime}
\citation{nts}
\citation{rollo}
\citation{kem2}
\citation{rqc}
\citation{kem3}
\citation{sike}
\citation{3b}
\citation{dili}
\citation{falcon}
\citation{fd2}
\citation{gemss}
\citation{luov}
\citation{fd4}
\citation{fd3}
\citation{fd5}
\citation{Sphincs}
\citation{Nist}
\@writefile{lot}{\contentsline {table}{\numberline {4}{\ignorespaces NIST security levels and its comparison}}{75}{table.0.4}}
\newlabel{NIST Security levels}{{4}{75}{NIST security levels and its comparison}{table.0.4}{}}
\@writefile{toc}{\contentsline {section}{\numberline {20}Classification of postquantum schemes}{75}{section.0.20}}
\@writefile{toc}{\contentsline {subsection}{\numberline {20.1}Code-based Cryptography}{75}{subsection.0.20.1}}
\citation{Mc}
\citation{NTRU}
\citation{Mc}
\citation{SI1}
\citation{SI2}
\@writefile{toc}{\contentsline {subsection}{\numberline {20.2}Lattice-based Cryptography}{76}{subsection.0.20.2}}
\@writefile{toc}{\contentsline {subsection}{\numberline {20.3}Supersingular-Isogeneous-Elliptic-Curves-based Cryptography}{76}{subsection.0.20.3}}
\citation{Lamport}
\citation{Merkle}
\citation{Hash}
\citation{MVPKC}
\@writefile{toc}{\contentsline {subsection}{\numberline {20.4}Hash-based Cryptography}{77}{subsection.0.20.4}}
\@writefile{toc}{\contentsline {subsection}{\numberline {20.5}Multivariate-Quadratic-Equation-based Cryptography}{77}{subsection.0.20.5}}
\@writefile{toc}{\contentsline {section}{\numberline {21}Quantum-safe cryptography in real world}{78}{section.0.21}}
\@writefile{toc}{\contentsline {subsection}{\numberline {21.1}Quantum-safe Transport Layer Security}{78}{subsection.0.21.1}}
\@writefile{toc}{\contentsline {subsection}{\numberline {21.2}Quantum-safe biometric schemes}{80}{subsection.0.21.2}}
